%YAML 1.1
%TAG !u! tag:unity3d.com,2011:
--- !u!114 &11400000
MonoBehaviour:
  m_ObjectHideFlags: 0
  m_CorrespondingSourceObject: {fileID: 0}
  m_PrefabInstance: {fileID: 0}
  m_PrefabAsset: {fileID: 0}
  m_GameObject: {fileID: 0}
  m_Enabled: 1
  m_EditorHideFlags: 0
  m_Script: {fileID: 11500000, guid: d1a8897d7ba7bb140bb70041bc2f83b2, type: 3}
  m_Name: DamageBuffTower
  m_EditorClassIdentifier: 
  Range: 2
  Damage: 0.5
  AttackSpeed: 1
  Cost: 2
  towerSprite: {fileID: 21300000, guid: a0258d1f3e749894998b8051a5147693, type: 3}
  towerColor: {r: 0.77647066, g: 0.882353, b: 0.7725491, a: 1}
  Description: This tower doubles the damage of nearby turrets
  BuffRange: 5
  DamageMultiplier: {fileID: 11400000, guid: 7e064187fba6dd440a0a49bbe3505a4a, type: 2}
