%YAML 1.1
%TAG !u! tag:unity3d.com,2011:
--- !u!114 &11400000
MonoBehaviour:
  m_ObjectHideFlags: 0
  m_CorrespondingSourceObject: {fileID: 0}
  m_PrefabInstance: {fileID: 0}
  m_PrefabAsset: {fileID: 0}
  m_GameObject: {fileID: 0}
  m_Enabled: 1
  m_EditorHideFlags: 0
  m_Script: {fileID: 11500000, guid: 0932b09894ea772448609281d1f339f4, type: 3}
  m_Name: Tower
  m_EditorClassIdentifier: 
  Range: 5
  Damage: 2
  AttackSpeed: 1
  Cost: 2
  towerSprite: {fileID: 21300000, guid: a1ba698702600d54f89461c522c54291, type: 3}
  towerColor: {r: 0.81960785, g: 0.5529412, b: 0.5529412, a: 1}
  Description: This is a slow turret dealing <u>{1}</u> damage with an attack speed
    of <u>{2}</u>. This has an average range of <u>{0}</u>.
